{
  "name": "give-grade",
  "description": "Give a grade",
  "version": "0.0.1",
  "main": "index.js",
  "bin": {
    "gg": "node ./index.js"
  },
  "author": "Lukas von Holst <vonholst.lukas@gmail.com>",
  "license": "GPL-3.0",
  "dependencies": {
    "colors": "1.1.x",
    "esm": "^3.2.25",
    "fs-extra": "^7.0.1",
    "js-yaml": "^3.13.1",
    "jsome": "^2.5.0",
    "moment": "2.20.x",
    "prompts": "^2.3.0",
    "sprintf-js": "^1.1.2"
  }
}
